nbody1.py
10.793615102767944
nbody10.py
11.711950302124023
nbody100.py
10.793399095535278
nbody1000.py
26.088026762008667
nbody1001.py
25.579911470413208
nbody1002.py
24.95490002632141
nbody1003.py
26.020670652389526
nbody1004.py
25.534699201583862
nbody1005.py
25.655699014663696
nbody1006.py
25.375845670700073
nbody1007.py
25.6295268535614
nbody1008.py
25.674471378326416
nbody1009.py
25.021128177642822
nbody101.py
10.89405345916748
nbody1010.py
25.887115716934204
nbody1011.py
25.786840200424194
nbody1012.py
25.0555636882782
nbody1013.py
25.226462364196777
nbody1014.py
25.533333778381348
nbody1015.py
25.791626691818237
nbody1016.py
25.60189652442932
nbody1017.py
26.156617403030396
nbody1018.py
25.0343599319458
nbody1019.py
25.94221568107605
nbody102.py
11.089099168777466
nbody1020.py
25.85745334625244
nbody1021.py
25.258784294128418
nbody1022.py
25.67894220352173
nbody1023.py
25.40044665336609
nbody1024.py
25.30731725692749
nbody103.py
10.83056926727295
nbody104.py
12.01674509048462
nbody105.py
11.497120380401611
nbody106.py
11.062765121459961
nbody107.py
10.73110818862915
nbody108.py
10.9189772605896
nbody109.py
11.515086650848389
nbody11.py
10.784290075302124
nbody110.py
10.809822797775269
nbody111.py
11.756700992584229
nbody112.py
11.613451480865479
nbody113.py
10.87083625793457
nbody114.py
10.88570523262024
nbody115.py
11.489749670028687
nbody116.py
10.917482614517212
nbody117.py
10.781635761260986
nbody118.py
11.296985864639282
nbody119.py
10.782422304153442
nbody12.py
10.8329496383667
nbody120.py
10.90916633605957
nbody121.py
11.49203610420227
nbody122.py
10.877049922943115
nbody123.py
11.900720357894897
nbody124.py
10.943641901016235
nbody125.py
10.935378313064575
nbody126.py
10.945956707000732
nbody127.py
10.99412751197815
nbody128.py
11.363072872161865
nbody129.py
10.779815673828125
nbody13.py
10.668756246566772
nbody130.py
10.794760704040527
nbody131.py
10.726606369018555
nbody132.py
10.777642488479614
nbody133.py
11.179351329803467
nbody134.py
11.127786636352539
nbody135.py
10.65758466720581
nbody136.py
10.88897967338562
nbody137.py
10.814103364944458
nbody138.py
10.735198736190796
nbody139.py
10.99493408203125
nbody14.py
11.335684299468994
nbody140.py
10.80752444267273
nbody141.py
10.876042127609253
nbody142.py
10.696933031082153
nbody143.py
10.84216570854187
nbody144.py
10.695224523544312
nbody145.py
10.83432674407959
nbody146.py
10.878798246383667
nbody147.py
10.776349067687988
nbody148.py
11.022905826568604
nbody149.py
10.833303928375244
nbody15.py
10.801907539367676
nbody150.py
11.805222034454346
nbody151.py
10.791550636291504
nbody152.py
11.417244672775269
nbody153.py
10.938274145126343
nbody154.py
10.756123781204224
nbody155.py
11.535739660263062
nbody156.py
10.871498346328735
nbody157.py
10.738426208496094
nbody158.py
11.102973222732544
nbody159.py
11.131345272064209
nbody16.py
11.506474256515503
nbody160.py
11.543338060379028
nbody161.py
10.803737163543701
nbody162.py
10.928542375564575
nbody163.py
11.851520299911499
nbody164.py
11.047353506088257
nbody165.py
10.767698049545288
nbody166.py
10.768508195877075
nbody167.py
11.266498327255249
nbody168.py
11.265811681747437
nbody169.py
11.379287481307983
nbody17.py
10.738548278808594
nbody170.py
10.924056768417358
nbody171.py
10.925887107849121
nbody172.py
10.79652190208435
nbody173.py
10.721035480499268
nbody174.py
10.991969108581543
nbody175.py
10.79830551147461
nbody176.py
10.803613662719727
nbody177.py
11.531400918960571
nbody178.py
10.7978835105896
nbody179.py
11.381519317626953
nbody18.py
10.750896215438843
nbody180.py
11.053959608078003
nbody181.py
10.95562219619751
nbody182.py
10.865115404129028
nbody183.py
11.826943635940552
nbody184.py
10.801106691360474
nbody185.py
11.142489671707153
nbody186.py
10.798502445220947
nbody187.py
10.846749544143677
nbody188.py
11.313290119171143
nbody189.py
11.338555812835693
nbody19.py
11.241143465042114
nbody190.py
10.805141687393188
nbody191.py
10.703022956848145
nbody192.py
10.868138313293457
nbody193.py
10.86671257019043
nbody194.py
10.829758644104004
nbody195.py
11.388412475585938
nbody196.py
11.851129293441772
nbody197.py
10.937278032302856
nbody198.py
10.746139764785767
nbody199.py
10.918205738067627
nbody2.py
10.790662050247192
nbody20.py
11.092165470123291
nbody200.py
11.369425535202026
nbody201.py
10.811876058578491
nbody202.py
10.872159242630005
nbody203.py
10.96745252609253
nbody204.py
11.112394571304321
nbody205.py
10.95908236503601
nbody206.py
10.916609048843384
nbody207.py
10.95445203781128
nbody208.py
10.860857963562012
nbody209.py
11.654957056045532
nbody21.py
10.854310035705566
nbody210.py
10.752585172653198
nbody211.py
11.809154987335205
nbody212.py
11.369651794433594
nbody213.py
11.517422437667847
nbody214.py
10.762161016464233
nbody215.py
11.200847148895264
nbody216.py
11.049797534942627
nbody217.py
10.799490690231323
nbody218.py
10.836470127105713
nbody219.py
10.81380820274353
nbody22.py
10.776703834533691
nbody220.py
10.788184404373169
nbody221.py
10.943218231201172
nbody222.py
10.780439138412476
nbody223.py
10.98970627784729
nbody224.py
11.5859055519104
nbody225.py
10.96003270149231
nbody226.py
10.97537612915039
nbody227.py
10.748618125915527
nbody228.py
10.885417938232422
nbody229.py
10.72522258758545
nbody23.py
10.835719108581543
nbody230.py
10.625574111938477
nbody231.py
10.831846952438354
nbody232.py
11.104054927825928
nbody233.py
10.878588199615479
nbody234.py
10.76116394996643
nbody235.py
11.388949394226074
nbody236.py
10.747236728668213
nbody237.py
10.96233582496643
nbody238.py
10.837231159210205
nbody239.py
11.249127626419067
nbody24.py
10.879778146743774
nbody240.py
10.839112520217896
nbody241.py
10.846611976623535
nbody242.py
10.934036254882812
nbody243.py
10.768334150314331
nbody244.py
10.76712155342102
nbody245.py
11.314557790756226
nbody246.py
10.802113056182861
nbody247.py
10.810102224349976
nbody248.py
10.930230617523193
nbody249.py
11.264639854431152
nbody25.py
10.879255771636963
nbody250.py
10.861018419265747
nbody251.py
11.020200967788696
nbody252.py
10.944793939590454
nbody253.py
11.679330825805664
nbody254.py
10.863847494125366
nbody255.py
10.75970721244812
nbody256.py
10.733686923980713
nbody257.py
10.927335739135742
nbody258.py
11.083877801895142
nbody259.py
10.929157018661499
nbody26.py
10.844354152679443
nbody260.py
11.386047124862671
nbody261.py
11.08694577217102
nbody262.py
10.980718851089478
nbody263.py
10.941549062728882
nbody264.py
11.537439107894897
nbody265.py
11.100426435470581
nbody266.py
10.886555910110474
nbody267.py
10.79663896560669
nbody268.py
10.851752996444702
nbody269.py
10.776852369308472
nbody27.py
10.78309154510498
nbody270.py
10.885773420333862
nbody271.py
11.465939044952393
nbody272.py
10.850070714950562
nbody273.py
11.474743366241455
nbody274.py
10.699697494506836
nbody275.py
10.899302005767822
nbody276.py
10.866104125976562
nbody277.py
10.924586296081543
nbody278.py
10.750741243362427
nbody279.py
10.739259719848633
nbody28.py
10.806676149368286
nbody280.py
10.679315090179443
nbody281.py
10.874978303909302
nbody282.py
10.887442350387573
nbody283.py
10.600409269332886
nbody284.py
11.24406623840332
nbody285.py
11.062333583831787
nbody286.py
10.830977439880371
nbody287.py
10.860398769378662
nbody288.py
10.848922967910767
nbody289.py
11.043314218521118
nbody29.py
11.413944721221924
nbody290.py
10.885193347930908
nbody291.py
10.8111891746521
nbody292.py
11.041061878204346
nbody293.py
10.71376633644104
nbody294.py
11.621912956237793
nbody295.py
10.883923053741455
nbody296.py
10.7149019241333
nbody297.py
11.333292007446289
nbody298.py
11.374351739883423
nbody299.py
10.810164451599121
nbody3.py
10.815910577774048
nbody30.py
10.616941452026367
nbody300.py
10.874845266342163
nbody301.py
10.720969676971436
nbody302.py
11.074696779251099
nbody303.py
11.04805302619934
nbody304.py
11.820300102233887
nbody305.py
10.859280109405518
nbody306.py
10.85966420173645
nbody307.py
10.75904107093811
nbody308.py
10.731818199157715
nbody309.py
10.996531963348389
nbody31.py
10.946782112121582
nbody310.py
10.785584688186646
nbody311.py
11.184489250183105
nbody312.py
10.931330919265747
nbody313.py
11.091261625289917
nbody314.py
10.925042867660522
nbody315.py
10.988633871078491
nbody316.py
10.854424238204956
nbody317.py
11.271536111831665
nbody318.py
10.74452829360962
nbody319.py
10.777146816253662
nbody32.py
10.835916996002197
nbody320.py
11.765721559524536
nbody321.py
11.42035460472107
nbody322.py
11.135319232940674
nbody323.py
10.882258415222168
nbody324.py
10.725319623947144
nbody325.py
11.992880582809448
nbody326.py
10.848322629928589
nbody327.py
10.807080030441284
nbody328.py
10.999959468841553
nbody329.py
10.773212671279907
nbody33.py
10.680022716522217
nbody330.py
10.730587482452393
nbody331.py
10.93716549873352
nbody332.py
11.044679164886475
nbody333.py
11.43346118927002
nbody334.py
11.594661235809326
nbody335.py
10.810234308242798
nbody336.py
11.004337549209595
nbody337.py
10.880000829696655
nbody338.py
10.938738107681274
nbody339.py
11.220418691635132
nbody34.py
10.763271808624268
nbody340.py
11.233169317245483
nbody341.py
11.023372173309326
nbody342.py
11.350739479064941
nbody343.py
11.080318927764893
nbody344.py
10.846755981445312
nbody345.py
11.904630661010742
nbody346.py
10.772176027297974
nbody347.py
10.781325578689575
nbody348.py
10.963139057159424
nbody349.py
11.043630361557007
nbody35.py
10.7567298412323
nbody350.py
11.38276982307434
nbody351.py
10.889325857162476
nbody352.py
10.944434881210327
nbody353.py
10.735649824142456
nbody354.py
10.781759023666382
nbody355.py
10.77245545387268
nbody356.py
10.819692373275757
nbody357.py
10.9188973903656
nbody358.py
10.833015441894531
nbody359.py
11.320070028305054
nbody36.py
10.758397817611694
nbody360.py
10.69214940071106
nbody361.py
10.923909187316895
nbody362.py
10.874825239181519
nbody363.py
11.54706621170044
nbody364.py
10.810851097106934
nbody365.py
10.822282791137695
nbody366.py
10.77878475189209
nbody367.py
10.950883388519287
nbody368.py
10.879160642623901
nbody369.py
11.363381624221802
nbody37.py
11.323853492736816
nbody370.py
10.962414026260376
nbody371.py
10.986703634262085
nbody372.py
11.183651685714722
nbody373.py
10.973204851150513
nbody374.py
10.677136421203613
nbody375.py
10.799526929855347
nbody376.py
11.409603357315063
nbody377.py
11.360888242721558
nbody378.py
10.74521541595459
nbody379.py
10.88567590713501
nbody38.py
10.793884515762329
nbody380.py
10.67373514175415
nbody381.py
11.857691049575806
nbody382.py
11.551459789276123
nbody383.py
10.868109941482544
nbody384.py
10.877163887023926
nbody385.py
10.939705848693848
nbody386.py
10.781208038330078
nbody387.py
10.816285133361816
nbody388.py
10.708362340927124
nbody389.py
10.756895780563354
nbody39.py
10.809457540512085
nbody390.py
10.819691896438599
nbody391.py
11.231313705444336
nbody392.py
11.062480211257935
nbody393.py
10.921727180480957
nbody394.py
11.756992101669312
nbody395.py
10.92211651802063
nbody396.py
10.819361925125122
nbody397.py
10.830215454101562
nbody398.py
10.836525440216064
nbody399.py
11.067883968353271
nbody4.py
10.969472169876099
nbody40.py
10.99187970161438
nbody400.py
11.806768894195557
nbody401.py
10.930229663848877
nbody402.py
10.811057567596436
nbody403.py
10.800110816955566
nbody404.py
10.92576003074646
nbody405.py
10.835235118865967
nbody406.py
10.902979135513306
nbody407.py
12.030565738677979
nbody408.py
10.742451429367065
nbody409.py
10.777873277664185
nbody41.py
10.796657800674438
nbody410.py
10.741945266723633
nbody411.py
10.82330584526062
nbody412.py
10.891329050064087
nbody413.py
11.062115907669067
nbody414.py
10.76267695426941
nbody415.py
10.79416799545288
nbody416.py
11.062860250473022
nbody417.py
11.076021671295166
nbody418.py
11.90878415107727
nbody419.py
10.816120624542236
nbody42.py
11.995121717453003
nbody420.py
11.39707064628601
nbody421.py
11.361629009246826
nbody422.py
10.708686351776123
nbody423.py
10.770077466964722
nbody424.py
10.84675645828247
nbody425.py
10.949642419815063
nbody426.py
10.669489860534668
nbody427.py
10.745398759841919
nbody428.py
10.95503830909729
nbody429.py
10.657896995544434
nbody43.py
10.906755447387695
nbody430.py
10.810165882110596
nbody431.py
11.723865509033203
nbody432.py
11.715209484100342
nbody433.py
11.00124740600586
nbody434.py
10.6934335231781
nbody435.py
10.827905893325806
nbody436.py
11.003811359405518
nbody437.py
10.734067678451538
nbody438.py
11.002511739730835
nbody439.py
10.778401374816895
nbody44.py
11.856811761856079
nbody440.py
10.751343250274658
nbody441.py
11.270694494247437
nbody442.py
11.05506157875061
nbody443.py
10.834107398986816
nbody444.py
10.79102110862732
nbody445.py
10.712344884872437
nbody446.py
10.70310091972351
nbody447.py
11.38963270187378
nbody448.py
11.35578465461731
nbody449.py
11.034061431884766
nbody45.py
10.794159173965454
nbody450.py
10.813409328460693
nbody451.py
11.238776683807373
nbody452.py
10.895454168319702
nbody453.py
10.912867784500122
nbody454.py
10.966485977172852
nbody455.py
11.922542572021484
nbody456.py
11.235781192779541
nbody457.py
10.749608278274536
nbody458.py
10.971399545669556
nbody459.py
11.15796685218811
nbody46.py
10.79296588897705
nbody460.py
10.83104920387268
nbody461.py
10.771522521972656
nbody462.py
10.831724643707275
nbody463.py
10.67598295211792
nbody464.py
10.803728818893433
nbody465.py
10.757314443588257
nbody466.py
12.653505086898804
nbody467.py
10.940569639205933
nbody468.py
10.906893491744995
nbody469.py
11.046013832092285
nbody47.py
11.361873865127563
nbody470.py
10.919273614883423
nbody471.py
11.006333589553833
nbody472.py
10.835424661636353
nbody473.py
10.866318225860596
nbody474.py
11.659464359283447
nbody475.py
10.905557632446289
nbody476.py
10.74930214881897
nbody477.py
10.856910467147827
nbody478.py
10.815382719039917
nbody479.py
11.082152128219604
nbody48.py
10.972967863082886
nbody480.py
10.6824049949646
nbody481.py
10.834298133850098
nbody482.py
10.790596008300781
nbody483.py
10.75017499923706
nbody484.py
10.988000869750977
nbody485.py
11.43833303451538
nbody486.py
10.717387676239014
nbody487.py
10.991572141647339
nbody488.py
10.66091775894165
nbody489.py
10.863125562667847
nbody49.py
11.072715282440186
nbody490.py
11.532498359680176
nbody491.py
10.801452159881592
nbody492.py
10.99400782585144
nbody493.py
10.752751588821411
nbody494.py
10.984228134155273
nbody495.py
10.753862857818604
nbody496.py
10.919809818267822
nbody497.py
23.84068250656128
nbody498.py
24.51167058944702
nbody499.py
23.977121114730835
nbody5.py
11.15003776550293
nbody50.py
10.725619077682495
nbody500.py
24.213371992111206
nbody501.py
24.31951332092285
nbody502.py
24.34215259552002
nbody503.py
24.34211802482605
nbody504.py
23.781440019607544
nbody505.py
24.833441972732544
nbody506.py
24.95440363883972
nbody507.py
24.319499492645264
nbody508.py
24.545007705688477
nbody509.py
24.104777097702026
nbody51.py
10.799892902374268
nbody510.py
23.572206735610962
nbody511.py
24.82468008995056
nbody512.py
23.917789936065674
nbody513.py
24.137928009033203
nbody514.py
24.9606454372406
nbody515.py
24.1111261844635
nbody516.py
24.91372561454773
nbody517.py
24.672014236450195
nbody518.py
24.417347192764282
nbody519.py
23.741939544677734
nbody52.py
10.851348876953125
nbody520.py
25.296679735183716
nbody521.py
24.743889570236206
nbody522.py
24.75606083869934
nbody523.py
24.066049098968506
nbody524.py
24.29952073097229
nbody525.py
24.73147177696228
nbody526.py
24.17570734024048
nbody527.py
23.849270582199097
nbody528.py
25.300942420959473
nbody529.py
25.829968214035034
nbody53.py
10.97507357597351
nbody530.py
24.155064582824707
nbody531.py
24.371530771255493
nbody532.py
25.983123779296875
nbody533.py
23.87090539932251
nbody534.py
24.204814910888672
nbody535.py
25.383275270462036
nbody536.py
24.067400217056274
nbody537.py
25.232849597930908
nbody538.py
24.34253430366516
nbody539.py
25.114765882492065
nbody54.py
12.565121173858643
nbody540.py
25.73863649368286
nbody541.py
23.77170968055725
nbody542.py
23.63337993621826
nbody543.py
24.080999612808228
nbody544.py
24.199124574661255
nbody545.py
24.08041524887085
nbody546.py
25.68554186820984
nbody547.py
24.108632564544678
nbody548.py
24.09436583518982
nbody549.py
23.930382013320923
nbody55.py
10.872678995132446
nbody550.py
24.14993381500244
nbody551.py
24.910252809524536
nbody552.py
24.60107159614563
nbody553.py
23.9853572845459
nbody554.py
24.848947525024414
nbody555.py
25.450236558914185
nbody556.py
24.714146852493286
nbody557.py
24.22296118736267
nbody558.py
25.027657985687256
nbody559.py
25.084621906280518
nbody56.py
10.90675663948059
nbody560.py
24.152631759643555
nbody561.py
25.194934368133545
nbody562.py
24.920372009277344
nbody563.py
24.613211154937744
nbody564.py
25.315243005752563
nbody565.py
24.28925657272339
nbody566.py
23.821895360946655
nbody567.py
24.743127584457397
nbody568.py
24.06286644935608
nbody569.py
24.110809087753296
nbody57.py
10.955632448196411
nbody570.py
24.6597318649292
nbody571.py
24.881028413772583
nbody572.py
23.73782968521118
nbody573.py
25.222236394882202
nbody574.py
25.191741228103638
nbody575.py
24.33801007270813
nbody576.py
24.16951632499695
nbody577.py
24.297634840011597
nbody578.py
23.804322242736816
nbody579.py
24.51126527786255
nbody58.py
11.228371381759644
nbody580.py
24.538540840148926
nbody581.py
24.914980173110962
nbody582.py
24.343946933746338
nbody583.py
24.901670217514038
nbody584.py
24.963765382766724
nbody585.py
23.9147047996521
nbody586.py
25.25521230697632
nbody587.py
24.371941804885864
nbody588.py
23.994771003723145
nbody589.py
24.64717721939087
nbody59.py
11.819149494171143
nbody590.py
23.807887315750122
nbody591.py
24.466811895370483
nbody592.py
24.02651357650757
nbody593.py
24.619544982910156
nbody594.py
24.362855911254883
nbody595.py
24.12220335006714
nbody596.py
24.155291080474854
nbody597.py
23.95734453201294
nbody598.py
25.425204515457153
nbody599.py
24.011133670806885
nbody6.py
11.134029150009155
nbody60.py
10.789790868759155
nbody600.py
24.442453145980835
nbody601.py
23.97749423980713
nbody602.py
23.860806465148926
nbody603.py
23.947270393371582
nbody604.py
24.56884217262268
nbody605.py
25.008607149124146
nbody606.py
23.944517850875854
nbody607.py
24.176517248153687
nbody608.py
24.023212671279907
nbody609.py
24.67754602432251
nbody61.py
11.017549276351929
nbody610.py
24.256706953048706
nbody611.py
24.389260053634644
nbody612.py
24.85386371612549
nbody613.py
24.48053741455078
nbody614.py
24.436386823654175
nbody615.py
24.105467557907104
nbody616.py
24.232749700546265
nbody617.py
25.47615361213684
nbody618.py
23.941771268844604
nbody619.py
24.65607976913452
nbody62.py
11.04165506362915
nbody620.py
24.217735528945923
nbody621.py
26.38178825378418
nbody622.py
24.404367685317993
nbody623.py
25.391515254974365
nbody624.py
23.788143634796143
nbody625.py
23.888346910476685
nbody626.py
24.884868383407593
nbody627.py
24.31788969039917
nbody628.py
24.21701169013977
nbody629.py
25.314491987228394
nbody63.py
10.841635465621948
nbody630.py
24.05417776107788
nbody631.py
23.936305046081543
nbody632.py
24.68385338783264
nbody633.py
24.5820574760437
nbody634.py
24.261028289794922
nbody635.py
24.17358136177063
nbody636.py
23.96429967880249
nbody637.py
24.400957584381104
nbody638.py
23.972020864486694
nbody639.py
24.55374002456665
nbody64.py
10.887497663497925
nbody640.py
24.27389645576477
nbody641.py
24.105575561523438
nbody642.py
24.546801805496216
nbody643.py
24.218952655792236
nbody644.py
26.094900846481323
nbody645.py
24.318316221237183
nbody646.py
23.655351877212524
nbody647.py
24.650957584381104
nbody648.py
25.5887508392334
nbody649.py
24.167786598205566
nbody65.py
11.265600681304932
nbody650.py
24.146403312683105
nbody651.py
24.132911682128906
nbody652.py
23.95289921760559
nbody653.py
24.6081383228302
nbody654.py
23.775289297103882
nbody655.py
23.794989109039307
nbody656.py
23.940621376037598
nbody657.py
25.284716367721558
nbody658.py
24.213752031326294
nbody659.py
25.106256246566772
nbody66.py
10.498042583465576
nbody660.py
23.544105529785156
nbody661.py
24.24731135368347
nbody662.py
23.903008222579956
nbody663.py
23.528088808059692
nbody664.py
24.27435612678528
nbody665.py
23.92340660095215
nbody666.py
23.429664134979248
nbody667.py
24.189664602279663
nbody668.py
24.404672384262085
nbody669.py
23.91546869277954
nbody67.py
11.270326375961304
nbody670.py
24.469150066375732
nbody671.py
24.35635209083557
nbody672.py
25.130831480026245
nbody673.py
24.072944164276123
nbody674.py
24.92611789703369
nbody675.py
23.943121910095215
nbody676.py
24.926780939102173
nbody677.py
23.88785982131958
nbody678.py
24.954118490219116
nbody679.py
24.343406677246094
nbody68.py
10.83629822731018
nbody680.py
23.806568145751953
nbody681.py
24.870760440826416
nbody682.py
24.188678741455078
nbody683.py
23.998088359832764
nbody684.py
23.458508014678955
nbody685.py
23.953215837478638
nbody686.py
25.16668677330017
nbody687.py
23.408403873443604
nbody688.py
23.934356212615967
nbody689.py
24.835092306137085
nbody69.py
10.800580501556396
nbody690.py
25.052512645721436
nbody691.py
25.860134840011597
nbody692.py
24.414660453796387
nbody693.py
24.299402952194214
nbody694.py
23.986522912979126
nbody695.py
23.930875778198242
nbody696.py
24.344817876815796
nbody697.py
24.067823886871338
nbody698.py
24.093932390213013
nbody699.py
23.882041454315186
nbody7.py
11.334089994430542
nbody70.py
10.708343744277954
nbody700.py
24.32744073867798
nbody701.py
24.065077543258667
nbody702.py
24.7122700214386
nbody703.py
24.441516876220703
nbody704.py
24.88521647453308
nbody705.py
24.448466062545776
nbody706.py
24.51602602005005
nbody707.py
24.801103115081787
nbody708.py
24.499157905578613
nbody709.py
24.15902042388916
nbody71.py
10.886445999145508
nbody710.py
23.805848598480225
nbody711.py
25.39018440246582
nbody712.py
24.900041103363037
nbody713.py
25.613354444503784
nbody714.py
25.426912307739258
nbody715.py
24.489838361740112
nbody716.py
24.28531813621521
nbody717.py
24.476710557937622
nbody718.py
23.76102590560913
nbody719.py
23.892331838607788
nbody72.py
10.718332529067993
nbody720.py
24.758424043655396
nbody721.py
23.93217444419861
nbody722.py
23.870131015777588
nbody723.py
23.942007780075073
nbody724.py
25.78348159790039
nbody725.py
24.541410207748413
nbody726.py
24.417510747909546
nbody727.py
25.049357175827026
nbody728.py
24.187626838684082
nbody729.py
23.957470417022705
nbody73.py
12.022213459014893
nbody730.py
24.891481399536133
nbody731.py
24.080362558364868
nbody732.py
24.545344352722168
nbody733.py
23.957136631011963
nbody734.py
24.270492553710938
nbody735.py
24.00596308708191
nbody736.py
24.507505416870117
nbody737.py
25.137101888656616
nbody738.py
25.171067237854004
nbody739.py
24.262593746185303
nbody74.py
10.924691677093506
nbody740.py
23.886523485183716
nbody741.py
24.160560369491577
nbody742.py
23.87037754058838
nbody743.py
24.25617790222168
nbody744.py
23.974128484725952
nbody745.py
24.59153175354004
nbody746.py
24.382861614227295
nbody747.py
23.927417278289795
nbody748.py
24.80724573135376
nbody749.py
24.81664490699768
nbody75.py
10.8162362575531
nbody750.py
24.092525959014893
nbody751.py
24.650095224380493
nbody752.py
24.162501096725464
nbody753.py
25.320828914642334
nbody754.py
23.36103868484497
nbody755.py
24.36691403388977
nbody756.py
24.976401329040527
nbody757.py
24.342132568359375
nbody758.py
23.951388120651245
nbody759.py
23.908509254455566
nbody76.py
10.881837844848633
nbody760.py
24.58741044998169
nbody761.py
24.868136644363403
nbody762.py
23.582130193710327
nbody763.py
24.392621517181396
nbody764.py
24.463650941848755
nbody765.py
24.526022911071777
nbody766.py
24.605854034423828
nbody767.py
24.896607398986816
nbody768.py
24.420124292373657
nbody769.py
24.336275815963745
nbody77.py
10.782880067825317
nbody770.py
24.3859601020813
nbody771.py
25.26340103149414
nbody772.py
25.172285079956055
nbody773.py
24.24669051170349
nbody774.py
23.80711030960083
nbody775.py
25.557600021362305
nbody776.py
24.17495346069336
nbody777.py
24.566725969314575
nbody778.py
24.15075373649597
nbody779.py
23.732526063919067
nbody78.py
10.795557022094727
nbody780.py
24.436015367507935
nbody781.py
24.28469967842102
nbody782.py
24.09004282951355
nbody783.py
25.711132287979126
nbody784.py
23.47029709815979
nbody785.py
24.466137886047363
nbody786.py
25.024317026138306
nbody787.py
24.173701286315918
nbody788.py
25.21741819381714
nbody789.py
25.10054612159729
nbody79.py
10.983253240585327
nbody790.py
23.93999481201172
nbody791.py
23.99641227722168
nbody792.py
25.06237769126892
nbody793.py
23.868982553482056
nbody794.py
24.19965624809265
nbody795.py
25.943830251693726
nbody796.py
24.05109667778015
nbody797.py
24.298486709594727
nbody798.py
24.097802877426147
nbody799.py
23.856711387634277
nbody8.py
11.053179264068604
nbody80.py
10.725868225097656
nbody800.py
24.351205587387085
nbody801.py
25.355425596237183
nbody802.py
24.77399754524231
nbody803.py
25.4487886428833
nbody804.py
23.993660926818848
nbody805.py
24.360504865646362
nbody806.py
24.88792133331299
nbody807.py
24.62856936454773
nbody808.py
23.767923593521118
nbody809.py
24.542455911636353
nbody81.py
10.745601415634155
nbody810.py
24.911547899246216
nbody811.py
25.071247577667236
nbody812.py
24.409833669662476
nbody813.py
24.38674259185791
nbody814.py
24.758184671401978
nbody815.py
24.050174713134766
nbody816.py
24.574854612350464
nbody817.py
24.0444917678833
nbody818.py
25.362427473068237
nbody819.py
23.76781129837036
nbody82.py
11.57658314704895
nbody820.py
24.213676929473877
nbody821.py
23.993358850479126
nbody822.py
24.37675404548645
nbody823.py
23.942529678344727
nbody824.py
23.98198676109314
nbody825.py
24.253055334091187
nbody826.py
24.58083462715149
nbody827.py
25.196817874908447
nbody828.py
24.49160385131836
nbody829.py
24.387045860290527
nbody83.py
11.485005140304565
nbody830.py
25.233700037002563
nbody831.py
25.74181294441223
nbody832.py
25.443033933639526
nbody833.py
24.18413805961609
nbody834.py
23.906458854675293
nbody835.py
23.731889009475708
nbody836.py
24.237251043319702
nbody837.py
23.835277557373047
nbody838.py
24.75334882736206
nbody839.py
24.678532123565674
nbody84.py
11.12893033027649
nbody840.py
24.156126260757446
nbody841.py
25.97927975654602
nbody842.py
24.581637620925903
nbody843.py
23.94547748565674
nbody844.py
23.938666820526123
nbody845.py
25.908095598220825
nbody846.py
24.592693090438843
nbody847.py
24.652567863464355
nbody848.py
23.99387764930725
nbody849.py
25.12222957611084
nbody85.py
10.932584047317505
nbody850.py
25.703165292739868
nbody851.py
23.776634216308594
nbody852.py
24.169922351837158
nbody853.py
24.8673677444458
nbody854.py
24.57965636253357
nbody855.py
24.28731107711792
nbody856.py
23.972092866897583
nbody857.py
24.104841709136963
nbody858.py
24.313638925552368
nbody859.py
24.20610785484314
nbody86.py
10.808179378509521
nbody860.py
24.452873468399048
nbody861.py
24.840871334075928
nbody862.py
25.458502769470215
nbody863.py
24.701950550079346
nbody864.py
24.481053590774536
nbody865.py
23.80180811882019
nbody866.py
24.148045301437378
nbody867.py
25.193719625473022
nbody868.py
25.218518257141113
nbody869.py
23.912233591079712
nbody87.py
11.373740196228027
nbody870.py
23.981799125671387
nbody871.py
24.080360651016235
nbody872.py
24.724061012268066
nbody873.py
24.148780584335327
nbody874.py
24.411789655685425
nbody875.py
25.291605949401855
nbody876.py
24.941153287887573
nbody877.py
24.047834634780884
nbody878.py
25.31709384918213
nbody879.py
24.470306873321533
nbody88.py
10.692314147949219
nbody880.py
24.119901418685913
nbody881.py
24.583171606063843
nbody882.py
24.820245504379272
nbody883.py
24.34881567955017
nbody884.py
24.500989198684692
nbody885.py
24.376774072647095
nbody886.py
23.946271181106567
nbody887.py
24.17049741744995
nbody888.py
25.319327116012573
nbody889.py
23.695738315582275
nbody89.py
11.28114914894104
nbody890.py
23.991313219070435
nbody891.py
24.07895255088806
nbody892.py
24.076422691345215
nbody893.py
25.150970458984375
nbody894.py
23.901363372802734
nbody895.py
24.742736101150513
nbody896.py
25.463822841644287
nbody897.py
24.387054443359375
nbody898.py
24.203920125961304
nbody899.py
24.37252187728882
nbody9.py
10.96614933013916
nbody90.py
11.026122570037842
nbody900.py
24.06425452232361
nbody901.py
24.147411346435547
nbody902.py
24.287678003311157
nbody903.py
23.90999960899353
nbody904.py
24.276063680648804
nbody905.py
24.16609764099121
nbody906.py
24.43019938468933
nbody907.py
24.19339895248413
nbody908.py
25.397728204727173
nbody909.py
24.63650345802307
nbody91.py
10.938825130462646
nbody910.py
24.59195876121521
nbody911.py
23.73854947090149
nbody912.py
24.21618366241455
nbody913.py
24.150241136550903
nbody914.py
23.986308097839355
nbody915.py
24.65851354598999
nbody916.py
23.90713882446289
nbody917.py
24.339585542678833
nbody918.py
24.04482388496399
nbody919.py
23.90551257133484
nbody92.py
11.518905878067017
nbody920.py
24.890514850616455
nbody921.py
24.39458656311035
nbody922.py
24.545302867889404
nbody923.py
24.957367420196533
nbody924.py
24.13236427307129
nbody925.py
24.635896682739258
nbody926.py
25.282755136489868
nbody927.py
24.186968564987183
nbody928.py
24.028622150421143
nbody929.py
25.043487787246704
nbody93.py
11.186467409133911
nbody930.py
24.807989597320557
nbody931.py
24.14592170715332
nbody932.py
23.990345001220703
nbody933.py
23.870095014572144
nbody934.py
24.67898917198181
nbody935.py
23.7918438911438
nbody936.py
24.614445686340332
nbody937.py
23.956274032592773
nbody938.py
23.886788845062256
nbody939.py
23.921444177627563
nbody94.py
11.094758749008179
nbody940.py
23.857319593429565
nbody941.py
24.151063919067383
nbody942.py
23.820122718811035
nbody943.py
23.746633768081665
nbody944.py
25.205545902252197
nbody945.py
24.206082820892334
nbody946.py
25.05302619934082
nbody947.py
24.206339359283447
nbody948.py
23.89633345603943
nbody949.py
23.837061166763306
nbody95.py
10.716922760009766
nbody950.py
24.216098070144653
nbody951.py
24.147385835647583
nbody952.py
24.15041470527649
nbody953.py
24.12009835243225
nbody954.py
24.2638680934906
nbody955.py
24.33482599258423
nbody956.py
24.748821258544922
nbody957.py
25.729039430618286
nbody958.py
24.21390175819397
nbody959.py
24.38885259628296
nbody96.py
11.605416297912598
nbody960.py
24.21572470664978
nbody961.py
24.234843254089355
nbody962.py
25.265225410461426
nbody963.py
23.962379217147827
nbody964.py
25.02478265762329
nbody965.py
25.40939950942993
nbody966.py
23.9990394115448
nbody967.py
24.430212259292603
nbody968.py
24.343422412872314
nbody969.py
24.696359634399414
nbody97.py
11.638627052307129
nbody970.py
24.613008499145508
nbody971.py
23.994154930114746
nbody972.py
24.578094482421875
nbody973.py
23.9639413356781
nbody974.py
23.889365911483765
nbody975.py
25.25167465209961
nbody976.py
24.162763118743896
nbody977.py
23.7785427570343
nbody978.py
24.07333993911743
nbody979.py
24.07536745071411
nbody98.py
10.840797185897827
nbody980.py
24.582529306411743
nbody981.py
24.501211166381836
nbody982.py
25.351405382156372
nbody983.py
23.7610125541687
nbody984.py
23.790611267089844
nbody985.py
23.958889484405518
nbody986.py
24.81780695915222
nbody987.py
24.01696228981018
nbody988.py
24.491904735565186
nbody989.py
24.535215377807617
nbody99.py
10.755812168121338
nbody990.py
23.62150239944458
nbody991.py
24.158325910568237
nbody992.py
24.92483425140381
nbody993.py
25.908205032348633
nbody994.py
25.361340284347534
nbody995.py
26.21440076828003
nbody996.py
25.55522608757019
nbody997.py
27.129750728607178
nbody998.py
27.119220972061157
nbody999.py
25.804948091506958
